{
  "project_info": {
    "project_number": "347678044683",
    "firebase_url": "https://anyotherproject-1495712957331.firebaseio.com",
    "project_id": "anyotherproject-1495712957331",
    "storage_bucket": "anyotherproject-1495712957331.appspot.com"
  },
  "client": [
    {
      "client_info": {
        "mobilesdk_app_id": "1:347678044683:android:4465f9b94bb3b403",
        "android_client_info": {
          "package_name": "com.emmanuel.lphapp"
        }
      },
      "oauth_client": [
        {
          "client_id": "347678044683-bv5team27p997schm3l70i5qneu9fbk4.apps.googleusercontent.com",
          "client_type": 3
        }
      ],
      "api_key": [
        {
          "current_key": "AIzaSyBEEBcEZQkjhNyPvJuplX9jCCnkRk8vPEs"
        }
      ],
      "services": {
        "analytics_service": {
          "status": 1
        },
        "appinvite_service": {
          "status": 1,
          "other_platform_oauth_client": []
        },
        "ads_service": {
          "status": 2
        }
      }
    }
  ],
  "configuration_version": "1"
}